{
  "apps": [{
    "name": "Profile",
    "script": "index.js",
    "exec_mode": "cluster",
    "watch": false,
    "max_memory_restart": "400M",
    "env": {
      "NODE_ENV": "production"
    },
    "env_production": {
      "NODE_ENV": "production"
    }
  }]
}